Capítulo 3 Índice de Velocidade do Crescimento Micelial - IVCM | Análises estatísticas com o R: Experimentos aplicados à Fitopatologia
…
O cálculo do IVCM para cada repetição de cada tratamento é feito com a função mvi do pacote phytopathologyr:

library(phytopathologyr)
dados_ivcm <- dados_ivcm %>%
  group_by(oe, dose, rep) %>%
  summarise(area = mvi(diametro, tempo)) %>%
  ungroup()

## `summarise()` has grouped output by 'oe', 'dose'. You can override using the
## `.groups` argument.

dados_ivcm

## # A tibble: 40 × 4
##    oe     dose   rep     area
##    <chr> <dbl> <dbl>    <dbl>
##  1 Cravo    50     1  2.12   
##  2 Cravo    50     2  2.07   
##  3 Cravo    50     3  1.99   
##  4 Cravo    50     4  2.06   
##  5 Cravo    50     5  2.01   
##  6 Cravo   150     1  1.54   
##  7 Cravo   150     2 -0.00961
##  8 Cravo   150     3  1.20   
##  9 Cravo   150     4 -0.00303
## 10 Cravo   150     5  0.558  
## # … with 30 more rows
…
